[
  {
    "id": 100,
    "name": "Edge",
    "min": 0,
    "max": 3,
    "value": 0
  },
  {
    "id": 101,
    "name": "Iron",
    "min": 0,
    "max": 3,
    "value": 0
  },
  {
    "id": 102,
    "name": "Heart",
    "min": 0,
    "max": 3,
    "value": 0
  },
  {
    "id": 103,
    "name": "Shadow",
    "min": 0,
    "max": 3,
    "value": 0
  },
  {
    "id": 104,
    "name": "Wits",
    "min": 0,
    "max": 3,
    "value": 0
  }
]
