[
  {
    "id": 1,
    "name": "Face danger",
    "type": "Adventure",
    "progress": false,
    "description": "Face Danger When you attempt something risky or react to an imminent threat, envision your action and roll. If you act... \n- With speed, agility, or precision: Roll +edge. \n- With charm, loyalty, or courage: Roll +heart. \n- With aggressive action, forceful defense, strength, or endurance: Roll +iron. \n- With deception, stealth, or trickery: Roll +shadow. \n- With expertise, insight, or observation: Roll +wits.\nOn a strong hit, you are successful. Take +1 momentum.\nOn a weak hit, you succeed, but face a troublesome cost. Choose one.\n- You are delayed, lose advantage, or face a new danger: Suffer -1 momentum.\n- You are tired or hurt: Endure Harm (1 harm). \n- You are dispirited or afraid: Endure Stress (1 stress).\n- You sacrifice resources: Suffer -1 supply.\nOn a miss, you fail, or your progress is undermined by a dramatic and costly turn of events. Pay the Price."
  },
  {
    "id": 2,
    "name": "Secure an Advantage",
    "type": "Adventure",
    "progress": false,
    "description": "When you assess a situation, make preparations, or attempt to gain leverage, envision your action and roll. If you act...\n- With speed, agility, or precision: Roll +edge.\n- With charm, loyalty, or courage: Roll +heart.\n- With aggressive action, forceful defense, strength, or endurance: Roll +iron.\n- With deception, stealth, or trickery: Roll +shadow.\n- With expertise, insight, or observation: Roll +wits.\nOn a strong hit, you gain advantage. Choose one.\n- Take control: Make another move now (not a progress move); when you do, add +1.\n- Prepare to act: Take +2 momentum.\nOn a weak hit, your advantage is short-lived. Take +1 momentum.\nOn a miss, you fail or your assumptions betray you. Pay the Price."
  },
  {
    "id": 3,
    "name": "Gather information",
    "type": "Adventure",
    "progress": false,
    "description": "When you search an area, ask questions, conduct an investigation, or follow a track, roll +wits. If you act within a community or ask questions of a person with whom you share a bond, add +1.\nOn a strong hit, you discover something helpful and specific. The path you must follow or action you must take to make progress is made clear. Envision what you learn (Ask the Oracle if unsure), and take +2 momentum. \nOn a weak hit, the information complicates your quest or introduces a new danger. Envision what you discover (Ask the Oracle if unsure), and take +1 momentum. \nOn a miss, your investigation unearths a dire threat or reveals an unwelcome truth that undermines your quest. Pay the Price.\n"
  },
  {
    "id": 4,
    "name": "Heal",
    "type": "Adventure",
    "progress": false,
    "description": "When you treat an injury or ailment, roll +wits. If you are mending your own wounds, roll +wits or +iron, whichever is lower. \nOn a strong hit, your care is helpful. If you (or the ally under your care) have the wounded condition, you may clear it. Then, take or give up to +2 health.\nOn a weak hit, as above, but you must suffer -1 supply or -1 momentum (your choice).\nOn a miss, your aid is ineffective. Pay the Price.\n"
  },
  {
    "id": 5,
    "name": "Make camp",
    "type": "Adventure",
    "progress": false,
    "description": "When you rest and recover for several hours in the wild, roll +supply.\nOn a strong hit, you and your allies may each choose two. On a weak hit, choose one.\nRecuperate: Take +1 health for you and any companions.\nPartake: Suffer -1 supply and take +1 health for you and any companions.\nRelax: Take +1 spirit.\nFocus: Take +1 momentum.\nPrepare: When you break camp, add +1 if you Undertake a Journey.\nOn a miss, you take no comfort. Pay the Price.\n"
  },
  {
    "id": 6,
    "name": "Undertake a Journey",
    "type": "Adventure",
    "progress": false,
    "description": "When you travel across hazardous or unfamiliar lands, first set the rank of your journey.\nTroublesome journey: 3 progress per waypoint.\nDangerous journey: 2 progress per waypoint.\nFormidable journey: 1 progress per waypoint.\nExtreme journey: 2 ticks per waypoint.\nEpic journey: 1 tick per waypoint.\nThen, for each segment of your journey, roll +wits. If you are setting off from a community with which you share a bond, add +1 to your initial roll.\nOn a strong hit, you reach a waypoint. If the waypoint is unknown to you, envision it (Ask the Oracle if unsure). Then, choose one.\nYou make good use of your resources: Mark progress.\nYou move at speed: Mark progress and take +1 momentum, but suffer -1 supply.\nOn a weak hit, you reach a waypoint and mark progress, but suffer -1 supply.\nOn a miss, you are waylaid by a perilous event. Pay the Price.\n"
  },
  {
    "id": 7,
    "name": "Reach Your Destination",
    "type": "Adventure",
    "progress": true,
    "description": "When your journey comes to an end, roll the challenge dice and compare to your progress. Momentum is ignored on this roll.\nOn a strong hit, the situation at your destination favors you. Choose one.\nMake another move now (not a progress move), and add +1.\nTake +1 momentum.\nOn a weak hit, you arrive but face an unforeseen hazard or complication. Envision what you find (Ask the Oracle if unsure).\nOn a miss, you have gone hopelessly astray, your objective is lost to you, or you were misled about your destination. If your journey continues, clear all but one filled progress, and raise the journey’s rank by one (if not already epic). \nProgress move"
  },
  {
    "id": 8,
    "name": "Compel",
    "type": "Relationship",
    "progress": false,
    "description": "When you attempt to persuade someone to do something, envision your approach and roll. If you...\nCharm, pacify, barter, or convince: Roll +heart (add +1 if you share a bond).\nThreaten or incite: Roll +iron.\nLie or swindle: Roll +shadow.\nOn a strong hit, they’ll do what you want or share what they know. Take +1 momentum. If you use this exchange to Gather Information, make that move now and add +1.\nOn a weak hit, as above, but they ask something of you in return. Envision what they want (Ask the Oracle if unsure).\nOn a miss, they refuse or make a demand which costs you greatly. Pay the Price.. "
  },
  {
    "id": 9,
    "name": "Sojourn",
    "type": "Relationship",
    "progress": false,
    "description": "When you spend time in a community seeking assistance, roll +heart. If you share a bond, add +1. \nOn strong hit, you and your allies may each choose two from within the categories below. On a weak hit, choose one. If you share a bond, choose one more. \nOn a hit, you and your allies may each focus on one of your chosen recover actions and roll +heart again. If you share a bond, add +1. On a strong hit, take +2 more for that action. On a weak hit, take +1 more. On a miss, it goes badly and you lose all benefits for that action.\nClear a Condition\nMend: Clear a wounded debility and take +1 health.\nHearten: Clear a shaken debility and take +1 spirit.\nEquip: Clear an unprepared debility and take +1 supply.\nRecover\nRecuperate: Take +2 health for yourself and any companions.\nConsort: Take +2 spirit.\nProvision: Take +2 supply.\nPlan: Take +2 momentum.\nProvide Aid\nTake a quest: Envision what this community needs, or what trouble it is facing (Ask the Oracle if unsure). If you chose to help, Swear an Iron Vow and add +1.\nOn a miss, you find no help here. Pay the Price.\n"
  },
  {
    "id": 10,
    "name": "Draw the circle",
    "type": "Relationship",
    "progress": false,
    "description": "When you challenge someone to a formal duel, or accept a challenge, roll +heart. If you share a bond with this community, add +1.\nOn a strong hit, take +1 momentum. You may also choose up to three boasts and take +1 momentum for each. \nOn a weak hit, you may choose one boast in exchange for +1 momentum.\nGrant first strike: Your foe has initiative.\nBare yourself: Take no benefit of armor or shield; your foe’s harm is +1.\nHold no iron: Take no benefit of weapons; your harm is 1.\nBloody yourself: Endure Harm (1 harm).\nTo the death: One way or another, this fight must end with death.\nOn a miss, you begin the duel at a disadvantage. Your foe has initiative. Pay the Price.\nThen, make moves to resolve the fight. If you are the victor, you may make a lawful demand, and your opponent must comply or forfeit their honor and standing. If you refuse the challenge, surrender, or are defeated, they make a demand of you.\n"
  },
  {
    "id": 11,
    "name": "Forge a bond",
    "type": "Relationship",
    "progress": false,
    "description": "When you spend significant time with a person or community, stand together to face hardships, or make sacrifices for their cause, you can attempt to create a bond. When you do, roll +heart. If you make this move after you successfully Fulfill Your Vow to their benefit, you may reroll any dice. \nOn a strong hit, make note of the bond, mark a tick on your bond progress track, and choose one.\nTake +1 spirit.\nTake +2 momentum.\nOn a weak hit, they ask something more of you first. Envision what it is (Ask the Oracle if unsure), do it (or Swear an Iron Vow), and mark the bond. If you decline or fail, Pay the Price.\nOn a miss, you are refused. Pay the Price.\n"
  },
  {
    "id": 12,
    "name": "Test your bond",
    "type": "Relationship",
    "progress": false,
    "description": "When your bond is tested through conflict, betrayal, or circumstance, roll +heart.\nOn a strong hit, this test has strengthened your bond. Choose one.\nTake +1 spirit.\nTake +2 momentum.\nOn a weak hit, your bond is fragile and you must prove your loyalty. Envision what they ask of you (Ask the Oracle if unsure), and do it (or Swear an Iron Vow). If you decline or fail, clear the bond and Pay the Price.\nOn a miss, or if you have no interest in maintaining this relationship, clear the bond and Pay the Price.\n"
  },
  {
    "id": 13,
    "name": "Aid your Ally",
    "type": "Relationship",
    "progress": false,
    "description": "When you Secure an Advantage in direct support of an ally, and score a hit, they (instead of you) can take the benefits of the move. If you are in combat and score a strong hit, you and your ally have initiative.\n"
  },
  {
    "id": 14,
    "name": "Write your epilogue",
    "type": "Relationship",
    "progress": true,
    "description": "When you retire from your life as Ironsworn, envision two things: What you hope for, and what you fear. Then, roll the challenge dice and compare to your bonds. Momentum is ignored on this roll.\nOn a strong hit, things come to pass as you hoped.\nOn a weak hit, your life takes an unexpected turn, but not necessarily for the worse. You find yourself spending your days with someone or in a place you did not foresee. Envision it (Ask the Oracle if unsure).\nOn a miss, your fears are realized. \nProgress move"
  },
  {
    "id": 15,
    "name": "Enter the Fray",
    "type": "Combat",
    "progress": false,
    "description": "When you enter into combat, first set the rank of each of your foes.\nTroublesome foe: 3 progress per harm; inflicts 1 harm.\nDangerous foe: 2 progress per harm; inflicts 2 harm.\nFormidable foe: 1 progress per harm; inflicts 3 harm.\nExtreme foe: 2 ticks per harm; inflicts 4 harm.\nEpic foe: 1 tick per harm; inflicts 5 harm.\nThen, roll to determine who is in control. If you are…\nFacing off against your foe: Roll +heart.\nMoving into position against an unaware foe, or striking without warning: Roll +shadow.\nAmbushed: Roll +wits.\nOn a strong hit, take +2 momentum. You have initiative.\nOn a weak hit, choose one.\nBolster your position: Take +2 momentum.\nPrepare to act: Take initiative.\nOn a miss, combat begins with you at a disadvantage. Pay the Price. Your foe has initiative.\n"
  },
  {
    "id": 16,
    "name": "Strike",
    "type": "Combat",
    "progress": false,
    "description": "When you have initiative and attack in close quarters, roll +iron When you have initiative and attack at range, roll +edge.\nOn a strong hit, inflict +1 harm. You retain initiative.\nOn a weak hit, inflict your harm and lose initiative.\nOn a miss, your attack fails and you must Pay the Price. Your foe has initiative.\n"
  },
  {
    "id": 17,
    "name": "Clash",
    "type": "Combat",
    "progress": false,
    "description": "When your foe has initiative and you fight with them in close quarters, roll +iron. When you exchange a volley at range, or shoot at an advancing foe, roll +edge.\nOn a strong hit, inflict your harm and choose one. You have the initiative.\nYou bolster your position: Take +1 momentum.\nYou find an opening: Inflict +1 harm.\nOn a weak hit, inflict your harm, but then Pay the Price. Your foe has initiative.\nOn a miss, you are outmatched and must Pay the Price. Your foe has initiative.\n"
  },
  {
    "id": 18,
    "name": "Turn the Tide",
    "type": "Combat",
    "progress": false,
    "description": "Once per fight, when you risk it all, you may steal initiative from your foe to make a move (not a progress move). When you do, add +1 and take +1 momentum on a hit.\nIf you fail to score a hit on that move, you must suffer a dire outcome. Pay the Price.\n"
  },
  {
    "id": 19,
    "name": "End the fight",
    "type": "Combat",
    "progress": true,
    "description": "When you make a move to take decisive action, and score a strong hit, you may resolve the outcome of this fight. If you do, roll the challenge dice and compare to your progress. Momentum is ignored on this roll.\nOn a strong hit, this foe is no longer in the fight. They are killed, out of action, flee, or surrender as appropriate to the situation and your intent (Ask the Oracle if unsure).\nOn a weak hit, as above, but you must also choose one.\nIt’s worse than you thought: Endure Harm.\nYou are overcome: Endure Stress.\nYour victory is short-lived: A new danger or foe appears, or an existing danger worsens.\nYou suffer collateral damage: Something of value is lost or broken, or someone important must pay the cost.\nYou’ll pay for it: An objective falls out of reach.\nOthers won’t forget: You are marked for vengeance.\nOn a miss, you have lost this fight. Pay the Price.\n"
  },
  {
    "id": 20,
    "name": "Battle",
    "type": "Combat",
    "progress": false,
    "description": "When you fight a battle, and it happens in a blur, envision your objective and roll. If you primarily…\nFight at range, or using your speed and the terrain to your advantage: Roll +edge.\nFight depending on your courage, allies, or companions: Roll +heart.\nFight in close to overpower your opponents: Roll +iron.\nFight using trickery to befuddle your opponents: Roll +shadow.\nFight using careful tactics to outsmart your opponents: Roll +wits.\nOn a strong hit, you achieve your objective unconditionally. Take +2 momentum.\nOn a weak hit, you achieve your objective, but not without cost. Pay the Price.\nOn a miss, you are defeated and the objective is lost to you. Pay the Price.\n"
  },
  {
    "id": 21,
    "name": "Endure harm",
    "type": "Suffer",
    "progress": false,
    "description": "When you face physical damage, suffer -health equal to your foe’s rank or as appropriate to the situation. If your health is 0, suffer -momentum equal to any remaining -health.\nThen, roll +health or +iron, whichever is higher.\nOn a strong hit, choose one.\nShake it off: If your health is greater than 0, suffer -1 momentum in exchange for +1 health.\nEmbrace the pain: Take +1 momentum.\nOn a weak hit, you press on.\nOn a miss, also suffer -1 momentum. If you are at 0 health, you must mark wounded or maimed (if currently unmarked) or roll on the following table.\n1-10 - The harm is mortal. Face Death.\n11-20 - You are dying. You need to Heal within an hour or two, or Face Death.\n21-35 - You are unconscious and out of action. If left alone, you come back to your senses in an hour or two. If you are vulnerable to a foe not inclined to show mercy, Face Death.\n36-50 - You are reeling and fighting to stay conscious. If you engage in any vigorous activity (such as running or fighting) before taking a breather for a few minutes, roll on this table again (before resolving the other move).\n51-00 - You are battered but still standing.\n"
  },
  {
    "id": 22,
    "name": "Face Death",
    "type": "Suffer",
    "progress": false,
    "description": "When you are brought to the brink of death, and glimpse the world beyond, roll +heart.\nOn a strong hit, death rejects you. You are cast back into the mortal world.\nOn a weak hit, choose one.\nYou die, but not before making a noble sacrifice. Envision your final moments.\nDeath desires something of you in exchange for your life. Envision what it wants (Ask the Oracle if unsure), and Swear an Iron Vow (formidable or extreme) to complete that quest. If you fail to score a hit when you Swear an Iron Vow, or refuse the quest, you are dead. Otherwise, you return to the mortal world and are now cursed. You may only clear the cursed debility by completing the quest.\nOn a miss, you are dead.\n"
  },
  {
    "id": 23,
    "name": "Companion endure harm",
    "type": "Suffer",
    "progress": false,
    "description": "When your companion faces physical damage, they suffer -health equal to the amount of harm inflicted. If your companion’s health is 0, exchange any leftover -health for -momentum.\nThen, roll +heart or +your companion’s health, whichever is higher.\nOn a strong hit, your companion rallies. Give them +1 health.\nOn a weak hit, your companion is battered. If their health is 0, they cannot assist you until they gain at least +1 health.\nOn a miss, also suffer -1 momentum. If your companion’s health is 0, they are gravely wounded and out of action. Without aid, they die in an hour or two.\nIf you roll a miss with a 1 on your action die, and your companion’s health is 0, they are now dead. Take 1 experience for each marked ability on your companion asset, and remove it.\n"
  },
  {
    "id": 24,
    "name": "Endure stress",
    "type": "Suffer",
    "progress": false,
    "description": "When you face mental shock or despair, suffer -spirit equal to your foe’s rank or as appropriate to the situation. If your spirit is 0, suffer -momentum equal to any remaining -spirit.\nThen, roll +heart or +spirit, whichever is higher.\nOn a strong hit, choose one.\nShake it off: If your spirit is greater than 0, suffer -1 momentum in exchange for +1 spirit\nEmbrace the darkness: Take +1 momentum\nOn a weak hit, you press on.\nOn a miss, also suffer -1 momentum. If you are at 0 spirit, you must mark shaken or corrupted (if currently unmarked) or roll on the following table.\n1-10 - You are overwhelmed. Face Desolation.\n11-25 - You give up. Forsake Your Vow (if possible, one relevant to your current crisis).\n26-50 - You give in to a fear or compulsion, and act against your better instincts.\n51-00 - You persevere.\n"
  },
  {
    "id": 25,
    "name": "Face Desolation",
    "type": "Suffer",
    "progress": false,
    "description": "When you are brought to the brink of desolation, roll +heart.\nOn a strong hit, you resist and press on.\nOn a weak hit, choose one.\nYour spirit or sanity breaks, but not before you make a noble sacrifice. Envision your final moments.\nYou see a vision of a dreaded event coming to pass. Envision that dark future (Ask the Oracle if unsure), and Swear an Iron Vow (formidable or extreme) to prevent it. If you fail to score a hit when you Swear an Iron Vow, or refuse the quest, you are lost. Otherwise, you return to your senses and are now tormented. You may only clear the tormented debility by completing the quest.\nOn a miss, you succumb to despair or horror and are lost.\n"
  },
  {
    "id": 26,
    "name": "Out of supply",
    "type": "Suffer",
    "progress": false,
    "description": "When your supply is exhausted (reduced to 0), mark unprepared. If you suffer additional -supply while unprepared, you must exchange each additional -supply for any combination of -health, -spirit or -momentum as appropriate to the circumstances.\n"
  },
  {
    "id": 27,
    "name": "Face a Setback",
    "type": "Suffer",
    "progress": false,
    "description": "When your momentum is at its minimum (-6), and you suffer additional -momentum, choose one.\nExchange each additional -momentum for any combination of -health, -spirit, or -supply as appropriate to the circumstances.\nEnvision an event or discovery (Ask the Oracle if unsure) which undermines your progress in a current quest, journey, or fight. Then, for each additional -momentum, clear 1 unit of progress on that track per its rank (troublesome=clear 3 progress; dangerous=clear 2 progress; formidable=clear 1 progress; extreme=clear 2 ticks; epic=clear 1 tick).\n"
  },
  {
    "id": 28,
    "name": "Swear an Iron Vow",
    "type": "Quest",
    "progress": false,
    "description": "When you swear upon iron to complete a quest, write your vow and give the quest a rank. Then, roll +heart. If you make this vow to a person or community with whom you share a bond, add +1.\nOn a strong hit, you are emboldened and it is clear what you must do next (Ask the Oracle if unsure). Take +2 momentum.\nOn a weak hit, you are determined but begin your quest with more questions than answers. Take +1 momentum, and envision what you do to find a path forward.\nOn a miss, you face a significant obstacle before you can begin your quest. Envision what stands in your way (Ask the Oracle if unsure), and choose one.\nYou press on: Suffer -2 momentum, and do what you must to overcome this obstacle.\nYou give up: Forsake Your Vow.\n"
  },
  {
    "id": 29,
    "name": "Reach a Milestone",
    "type": "Quest",
    "progress": false,
    "description": "When you make significant progress in your quest by overcoming a critical obstacle, completing a perilous journey, solving a complex mystery, defeating a powerful threat, gaining vital support, or acquiring a crucial item, you may mark progress.\nTroublesome quest: Mark 3 progress.\nDangerous quest: Mark 2 progress.\nFormidable quest: Mark 1 progress.\nExtreme quest: Mark 2 ticks.\nEpic quest: Mark 1 tick.\n"
  },
  {
    "id": 30,
    "name": "Fulfill your Vow",
    "type": "Quest",
    "progress": true,
    "description": "When you achieve what you believe to be the fulfillment of your vow, roll the challenge dice and compare to your progress. Momentum is ignored on this roll.\nOn a strong hit, your quest is complete. Mark experience (troublesome=1; dangerous=2; formidable=3; extreme=4; epic=5).\nOn a weak hit, there is more to be done or you realize the truth of your quest. Envision what you discover (Ask the Oracle if unsure). Then, mark experience (troublesome=0; dangerous=1; formidable=2; extreme=3; epic=4). You may Swear an Iron Vow to set things right. If you do, add +1.\nOn a miss, your quest is undone. Envision what happens (Ask the Oracle if unsure), and choose one.\nYou recommit: Clear all but one filled progress, and raise the quest’s rank by one (if not already epic).\nYou give up: Forsake Your Vow"
  },
  {
    "id": 31,
    "name": "Forsake Your Vow",
    "type": "Quest",
    "progress": false,
    "description": "When you renounce your quest, betray your promise, or the goal is lost to you, clear the vow and Endure Stress. You suffer -spirit equal to the rank of your quest (troublesome=1; dangerous=2; formidable=3; extreme=4; epic=5).\n"
  },
  {
    "id": 32,
    "name": "Advance",
    "type": "Quest",
    "progress": false,
    "description": "When you focus on your skills, receive training, find inspiration, earn a reward, or gain a companion, you may spend 3 experience to add a new asset, or 2 experience to upgrade an asset.\n"
  },
  {
    "id": 33,
    "name": "Pay the Price",
    "type": "Fate",
    "progress": false,
    "description": "Pay the Price\nWhen you suffer the outcome of a move, choose one.\nMake the most obvious negative outcome happen.\nEnvision two negative outcomes. Rate one as ‘likely’, and Ask the Oracle using the yes/no table. On a ‘yes’, make that outcome happen. Otherwise, make it the other.\nRoll on the following table. If you have difficulty interpreting the result to fit the current situation, roll again.\n1-2 - Roll again and apply that result but make it worse. If you roll this result yet again, think of something dreadful that changes the course of your quest (Ask the Oracle if unsure) and make it happen. \n3-5 - A person or community you trusted loses faith in you, or acts against you.\n6-9 - A person or community you care about is exposed to danger.\n10-16 - You are separated from something or someone.\n17-23 - Your action has an unintended effect.\n24-32 - Something of value is lost or destroyed.\n33-41 - The current situation worsens.\n42-50 - A new danger or foe is revealed.\n51-59 - It causes a delay or puts you at a disadvantage.\n60-68 - It is harmful.\n69-77 - It is stressful.\n78-85 - A surprising development complicates your quest.\n86-90 - It wastes resources.\n91-94 - It forces you to act against your best intentions.\n95-98 - A friend, companion, or ally is put in harm’s way (or you are, if alone).\n99-100 - Roll twice more on this table. Both results occur. If they are the same result, make it worse.\n"
  },
  {
    "id": 34,
    "name": "Ask the Oracle",
    "type": "Fate",
    "progress": false,
    "description": "When you seek to resolve questions, discover details in the world, determine how other characters respond, or trigger encounters or events, you may…\nDraw a conclusion: Decide the answer based on the most interesting and obvious result.\nAsk a yes/no question: Decide the odds of a ‘yes’, and roll on the table below to check the answer. \nPick two: Envision two options. Rate one as ‘likely’, and roll on the table below to see if it is true. If not, it is the other.\nSpark an idea: Brainstorm or use a random prompt.\nOdds\nThe answer is ‘yes’ if you roll...\nAlmost Certain - 11 or greater\nLikely - 26 or greater\n50/50 - 51 or greater\nUnlikely - 76 or greater\nSmall Chance - 91 or greater\nOn a match, an extreme result or twist has occurred.\n"
  }
]
